{"data": {"Page": {"pageInfo": {"total": 5000, "perPage": 50, "currentPage": 1, "lastPage": 100, "hasNextPage": true}, "media": [{"id": 30002, "idMal": 2, "averageScore": 93, "popularity": 145413, "episodes": null}, {"id": 31706, "idMal": 1706, "averageScore": 92, "popularity": 64370, "episodes": null}, {"id": 30656, "idMal": 656, "averageScore": 91, "popularity": 89321, "episodes": null}, {"id": 30013, "idMal": 13, "averageScore": 91, "popularity": 139913, "episodes": null}, {"id": 114129, "idMal": 39486, "averageScore": 91, "popularity": 30773, "episodes": 1}, {"id": 30001, "idMal": 1, "averageScore": 90, "popularity": 64783, "episodes": null}, {"id": 20996, "idMal": 28977, "averageScore": 90, "popularity": 83851, "episodes": 51}, {"id": 124194, "idMal": 42938, "averageScore": 90, "popularity": 110424, "episodes": 13}, {"id": 5114, "idMal": 5114, "averageScore": 90, "popularity": 471749, "episodes": 64}, {"id": 125367, "idMal": 43608, "averageScore": 90, "popularity": 160979, "episodes": 13}, {"id": 104578, "idMal": 38524, "averageScore": 90, "popularity": 389286, "episodes": 10}, {"id": 150672, "idMal": 52034, "averageScore": 90, "popularity": 82782, "episodes": 11}, {"id": 30642, "idMal": 642, "averageScore": 89, "popularity": 83842, "episodes": null}, {"id": 30051, "idMal": 51, "averageScore": 89, "popularity": 45774, "episodes": null}, {"id": 151384, "idMal": 52198, "averageScore": 89, "popularity": 54664, "episodes": 4}, {"id": 11061, "idMal": 11061, "averageScore": 89, "popularity": 549049, "episodes": 148}, {"id": 116674, "idMal": 41467, "averageScore": 89, "popularity": 90214, "episodes": 13}, {"id": 98478, "idMal": 35180, "averageScore": 89, "popularity": 98442, "episodes": 22}, {"id": 21745, "idMal": 35247, "averageScore": 89, "popularity": 88063, "episodes": 7}, {"id": 9253, "idMal": 9253, "averageScore": 89, "popularity": 391184, "episodes": 24}, {"id": 30025, "idMal": 25, "averageScore": 89, "popularity": 52766, "episodes": null}, {"id": 146984, "idMal": 51535, "averageScore": 89, "popularity": 91080, "episodes": 1}, {"id": 9969, "idMal": 9969, "averageScore": 89, "popularity": 77469, "episodes": 51}, {"id": 15417, "idMal": 15417, "averageScore": 89, "popularity": 59840, "episodes": 13}, {"id": 74489, "idMal": 44489, "averageScore": 89, "popularity": 43933, "episodes": null}, {"id": 98361, "idMal": 126479, "averageScore": 88, "popularity": 21879, "episodes": null}, {"id": 65243, "idMal": 35243, "averageScore": 88, "popularity": 73859, "episodes": null}, {"id": 64053, "idMal": 34053, "averageScore": 88, "popularity": 5327, "episodes": null}, {"id": 46765, "idMal": 16765, "averageScore": 88, "popularity": 46679, "episodes": null}, {"id": 34632, "idMal": 4632, "averageScore": 88, "popularity": 114930, "episodes": null}, {"id": 31303, "idMal": 1303, "averageScore": 88, "popularity": 18955, "episodes": null}, {"id": 30657, "idMal": 657, "averageScore": 88, "popularity": 28862, "episodes": null}, {"id": 87395, "idMal": 70345, "averageScore": 88, "popularity": 44912, "episodes": null}, {"id": 97889, "idMal": 34096, "averageScore": 88, "popularity": 58201, "episodes": 12}, {"id": 820, "idMal": 820, "averageScore": 88, "popularity": 55469, "episodes": 110}, {"id": 103047, "idMal": 37987, "averageScore": 88, "popularity": 117113, "episodes": 1}, {"id": 164117, "idMal": 55016, "averageScore": 88, "popularity": 5219, "episodes": 1}, {"id": 135129, "idMal": null, "averageScore": 88, "popularity": 4575, "episodes": null}, {"id": 86635, "idMal": 90125, "averageScore": 88, "popularity": 84652, "episodes": null}, {"id": 30104, "idMal": 104, "averageScore": 88, "popularity": 39434, "episodes": null}, {"id": 143701, "idMal": null, "averageScore": 88, "popularity": 2683, "episodes": null}, {"id": 130003, "idMal": 47917, "averageScore": 88, "popularity": 95114, "episodes": 12}, {"id": 112275, "idMal": 140765, "averageScore": 88, "popularity": 12563, "episodes": null}, {"id": 101338, "idMal": 37510, "averageScore": 88, "popularity": 293642, "episodes": 13}, {"id": 30003, "idMal": 3, "averageScore": 88, "popularity": 61020, "episodes": null}, {"id": 20954, "idMal": 28851, "averageScore": 88, "popularity": 439904, "episodes": 1}, {"id": 19, "idMal": 19, "averageScore": 88, "popularity": 183448, "episodes": 74}, {"id": 17074, "idMal": 17074, "averageScore": 88, "popularity": 125275, "episodes": 26}, {"id": 30028, "idMal": 28, "averageScore": 88, "popularity": 31690, "episodes": null}, {"id": 115166, "idMal": 123992, "averageScore": 87, "popularity": 9700, "episodes": null}]}}}
{"data": {"Page": {"pageInfo": {"total": 5000, "perPage": 50, "currentPage": 2, "lastPage": 100, "hasNextPage": true}, "media": [{"id": 94970, "idMal": 89357, "averageScore": 87, "popularity": 28763, "episodes": null}, {"id": 2921, "idMal": 2921, "averageScore": 87, "popularity": 12436, "episodes": 47}, {"id": 143838, "idMal": null, "averageScore": 87, "popularity": 1876, "episodes": null}, {"id": 15335, "idMal": 15335, "averageScore": 87, "popularity": 38828, "episodes": 1}, {"id": 21, "idMal": 21, "averageScore": 87, "popularity": 420526, "episodes": null}, {"id": 140439, "idMal": 50172, "averageScore": 87, "popularity": 127508, "episodes": 12}, {"id": 30026, "idMal": 26, "averageScore": 87, "popularity": 67662, "episodes": null}, {"id": 142329, "idMal": 47778, "averageScore": 87, "popularity": 243688, "episodes": 11}, {"id": 113024, "idMal": 40664, "averageScore": 87, "popularity": 10035, "episodes": 1}, {"id": 85470, "idMal": 70261, "averageScore": 87, "popularity": 20861, "episodes": null}, {"id": 85135, "idMal": 56805, "averageScore": 87, "popularity": 65168, "episodes": null}, {"id": 53751, "idMal": 23751, "averageScore": 87, "popularity": 5957, "episodes": null}, {"id": 31224, "idMal": 1224, "averageScore": 87, "popularity": 22386, "episodes": null}, {"id": 21698, "idMal": 32935, "averageScore": 87, "popularity": 254829, "episodes": 10}, {"id": 21400, "idMal": 31758, "averageScore": 87, "popularity": 100047, "episodes": 1}, {"id": 4181, "idMal": 4181, "averageScore": 87, "popularity": 158903, "episodes": 24}, {"id": 110992, "idMal": 102875, "averageScore": 87, "popularity": 2318, "episodes": null}, {"id": 101925, "idMal": 37491, "averageScore": 87, "popularity": 38203, "episodes": 14}, {"id": 101348, "idMal": 37521, "averageScore": 87, "popularity": 294480, "episodes": 24}, {"id": 110277, "idMal": 40028, "averageScore": 87, "popularity": 409479, "episodes": 16}, {"id": 44893, "idMal": 14893, "averageScore": 87, "popularity": 14071, "episodes": null}, {"id": 121467, "idMal": 40434, "averageScore": 87, "popularity": 14232, "episodes": 12}, {"id": 126403, "idMal": 44074, "averageScore": 87, "popularity": 72506, "episodes": 11}, {"id": 100805, "idMal": 119072, "averageScore": 87, "popularity": 23636, "episodes": null}, {"id": 98610, "idMal": 104039, "averageScore": 87, "popularity": 11549, "episodes": null}, {"id": 51525, "idMal": 21525, "averageScore": 87, "popularity": 34754, "episodes": null}, {"id": 30336, "idMal": 336, "averageScore": 87, "popularity": 37053, "episodes": null}, {"id": 143726, "idMal": null, "averageScore": 87, "popularity": 1349, "episodes": null}, {"id": 75143, "idMal": 45143, "averageScore": 86, "popularity": 13804, "episodes": null}, {"id": 21733, "idMal": 33095, "averageScore": 86, "popularity": 41074, "episodes": 12}, {"id": 2904, "idMal": 2904, "averageScore": 86, "popularity": 239409, "episodes": 25}, {"id": 131681, "idMal": 48583, "averageScore": 86, "popularity": 237026, "episodes": 12}, {"id": 105778, "idMal": 116778, "averageScore": 86, "popularity": 208297, "episodes": null}, {"id": 85737, "idMal": 74697, "averageScore": 86, "popularity": 17976, "episodes": null}, {"id": 20751, "idMal": 24701, "averageScore": 86, "popularity": 41597, "episodes": 10}, {"id": 131586, "idMal": 48569, "averageScore": 86, "popularity": 91899, "episodes": 12}, {"id": 37375, "idMal": 7375, "averageScore": 86, "popularity": 30136, "episodes": null}, {"id": 113415, "idMal": 40748, "averageScore": 86, "popularity": 546889, "episodes": 24}, {"id": 106929, "idMal": 147171, "averageScore": 86, "popularity": 19153, "episodes": null}, {"id": 31133, "idMal": 1133, "averageScore": 86, "popularity": 55124, "episodes": null}, {"id": 30007, "idMal": 7, "averageScore": 86, "popularity": 20510, "episodes": null}, {"id": 143841, "idMal": null, "averageScore": 86, "popularity": 1090, "episodes": null}, {"id": 127720, "idMal": 45576, "averageScore": 86, "popularity": 160318, "episodes": 12}, {"id": 30044, "idMal": 44, "averageScore": 86, "popularity": 21711, "episodes": null}, {"id": 111762, "idMal": 40417, "averageScore": 86, "popularity": 125976, "episodes": 25}, {"id": 107237, "idMal": 107931, "averageScore": 86, "popularity": 54108, "episodes": null}, {"id": 39115, "idMal": 9115, "averageScore": 86, "popularity": 13248, "episodes": null}, {"id": 112641, "idMal": 40591, "averageScore": 86, "popularity": 289851, "episodes": 12}, {"id": 86559, "idMal": 85968, "averageScore": 86, "popularity": 31958, "episodes": null}, {"id": 53900, "idMal": 23900, "averageScore": 86, "popularity": 4066, "episodes": null}]}}}
{"data": [{"id": 16498, "popularity": 3706044, "mean_score": 8.53, "num_episodes": 25}, {"id": 1535, "popularity": 3675465, "mean_score": 8.62, "num_episodes": 37}, {"id": 5114, "popularity": 3138198, "mean_score": 9.1, "num_episodes": 64}, {"id": 30276, "popularity": 3026903, "mean_score": 8.5, "num_episodes": 12}, {"id": 11757, "popularity": 2928393, "mean_score": 7.2, "num_episodes": 25}, {"id": 31964, "popularity": 2853988, "mean_score": 7.9, "num_episodes": 13}, {"id": 38000, "popularity": 2760953, "mean_score": 8.51, "num_episodes": 26}, {"id": 20, "popularity": 2690223, "mean_score": 7.98, "num_episodes": 220}, {"id": 22319, "popularity": 2675089, "mean_score": 7.79, "num_episodes": 12}, {"id": 11061, "popularity": 2623148, "mean_score": 9.04, "num_episodes": 148}, {"id": 32281, "popularity": 2566179, "mean_score": 8.85, "num_episodes": 1}, {"id": 25777, "popularity": 2537218, "mean_score": 8.5, "num_episodes": 12}, {"id": 9253, "popularity": 2412850, "mean_score": 9.08, "num_episodes": 24}, {"id": 33486, "popularity": 2388207, "mean_score": 8.12, "num_episodes": 25}, {"id": 1735, "popularity": 2322218, "mean_score": 8.26, "num_episodes": 500}, {"id": 19815, "popularity": 2287900, "mean_score": 8.08, "num_episodes": 12}, {"id": 40748, "popularity": 2208449, "mean_score": 8.64, "num_episodes": 24}, {"id": 35760, "popularity": 2182738, "mean_score": 8.62, "num_episodes": 12}, {"id": 28851, "popularity": 2165412, "mean_score": 8.94, "num_episodes": 1}, {"id": 21, "popularity": 2136743, "mean_score": 8.69, "num_episodes": 0}, {"id": 1575, "popularity": 2132283, "mean_score": 8.7, "num_episodes": 25}, {"id": 4224, "popularity": 2104342, "mean_score": 8.08, "num_episodes": 25}, {"id": 23273, "popularity": 2090172, "mean_score": 8.65, "num_episodes": 22}, {"id": 38524, "popularity": 2071656, "mean_score": 9.06, "num_episodes": 10}, {"id": 31240, "popularity": 2071040, "mean_score": 8.24, "num_episodes": 25}, {"id": 36456, "popularity": 2064382, "mean_score": 8.05, "num_episodes": 25}, {"id": 20507, "popularity": 2062012, "mean_score": 7.95, "num_episodes": 12}, {"id": 6547, "popularity": 1997364, "mean_score": 8.06, "num_episodes": 13}, {"id": 22199, "popularity": 1979895, "mean_score": 7.47, "num_episodes": 24}, {"id": 31043, "popularity": 1973437, "mean_score": 8.31, "num_episodes": 12}, {"id": 23755, "popularity": 1958013, "mean_score": 7.67, "num_episodes": 24}, {"id": 10620, "popularity": 1933257, "mean_score": 7.42, "num_episodes": 26}, {"id": 32182, "popularity": 1933075, "mean_score": 8.49, "num_episodes": 12}, {"id": 24833, "popularity": 1894277, "mean_score": 8.09, "num_episodes": 22}, {"id": 21881, "popularity": 1887664, "mean_score": 6.7, "num_episodes": 24}, {"id": 20583, "popularity": 1850468, "mean_score": 8.44, "num_episodes": 25}, {"id": 37779, "popularity": 1845110, "mean_score": 8.52, "num_episodes": 12}, {"id": 30831, "popularity": 1842264, "mean_score": 8.11, "num_episodes": 10}, {"id": 9919, "popularity": 1841767, "mean_score": 7.5, "num_episodes": 25}, {"id": 269, "popularity": 1835778, "mean_score": 7.91, "num_episodes": 366}, {"id": 40028, "popularity": 1817484, "mean_score": 8.8, "num_episodes": 16}, {"id": 22535, "popularity": 1764289, "mean_score": 8.34, "num_episodes": 24}, {"id": 1, "popularity": 1752520, "mean_score": 8.75, "num_episodes": 26}, {"id": 199, "popularity": 1741408, "mean_score": 8.78, "num_episodes": 1}, {"id": 30, "popularity": 1698043, "mean_score": 8.34, "num_episodes": 26}, {"id": 27899, "popularity": 1693753, "mean_score": 7.02, "num_episodes": 12}, {"id": 2904, "popularity": 1683236, "mean_score": 8.91, "num_episodes": 25}, {"id": 28223, "popularity": 1671898, "mean_score": 8.16, "num_episodes": 12}, {"id": 6702, "popularity": 1670226, "mean_score": 7.57, "num_episodes": 175}, {"id": 33352, "popularity": 1656390, "mean_score": 8.67, "num_episodes": 13}, {"id": 18679, "popularity": 1645969, "mean_score": 8.04, "num_episodes": 24}, {"id": 37450, "popularity": 1617030, "mean_score": 8.25, "num_episodes": 13}, {"id": 38408, "popularity": 1612933, "mean_score": 7.91, "num_episodes": 25}, {"id": 37999, "popularity": 1609628, "mean_score": 8.41, "num_episodes": 12}, {"id": 38691, "popularity": 1604383, "mean_score": 8.29, "num_episodes": 24}, {"id": 11111, "popularity": 1592360, "mean_score": 7.48, "num_episodes": 12}, {"id": 28171, "popularity": 1573100, "mean_score": 8.16, "num_episodes": 24}, {"id": 34134, "popularity": 1570427, "mean_score": 7.5, "num_episodes": 12}, {"id": 13601, "popularity": 1555829, "mean_score": 8.34, "num_episodes": 22}, {"id": 3588, "popularity": 1553414, "mean_score": 7.84, "num_episodes": 51}, {"id": 14719, "popularity": 1553197, "mean_score": 7.9, "num_episodes": 26}, {"id": 35849, "popularity": 1550093, "mean_score": 7.21, "num_episodes": 24}, {"id": 9989, "popularity": 1543146, "mean_score": 8.31, "num_episodes": 11}, {"id": 2001, "popularity": 1535758, "mean_score": 8.63, "num_episodes": 27}, {"id": 34572, "popularity": 1526240, "mean_score": 8.14, "num_episodes": 170}, {"id": 28999, "popularity": 1521570, "mean_score": 7.75, "num_episodes": 13}, {"id": 29803, "popularity": 1495078, "mean_score": 7.92, "num_episodes": 13}, {"id": 15809, "popularity": 1492975, "mean_score": 7.75, "num_episodes": 13}, {"id": 35790, "popularity": 1481290, "mean_score": 7.98, "num_episodes": 25}, {"id": 226, "popularity": 1453262, "mean_score": 7.48, "num_episodes": 13}, {"id": 28121, "popularity": 1453016, "mean_score": 7.55, "num_episodes": 13}, {"id": 8074, "popularity": 1440335, "mean_score": 7.07, "num_episodes": 12}, {"id": 10087, "popularity": 1436834, "mean_score": 8.28, "num_episodes": 13}, {"id": 32937, "popularity": 1422328, "mean_score": 8.27, "num_episodes": 10}, {"id": 121, "popularity": 1417648, "mean_score": 8.11, "num_episodes": 51}, {"id": 37510, "popularity": 1412901, "mean_score": 8.8, "num_episodes": 13}, {"id": 34933, "popularity": 1394684, "mean_score": 7.25, "num_episodes": 12}, {"id": 30503, "popularity": 1391830, "mean_score": 8.16, "num_episodes": 13}, {"id": 40456, "popularity": 1365463, "mean_score": 8.62, "num_episodes": 1}, {"id": 2167, "popularity": 1362945, "mean_score": 8, "num_episodes": 23}, {"id": 11617, "popularity": 1359927, "mean_score": 7.34, "num_episodes": 12}, {"id": 14813, "popularity": 1358272, "mean_score": 8.01, "num_episodes": 13}, {"id": 6746, "popularity": 1352994, "mean_score": 8.11, "num_episodes": 24}, {"id": 28891, "popularity": 1346558, "mean_score": 8.63, "num_episodes": 25}, {"id": 5081, "popularity": 1346490, "mean_score": 8.33, "num_episodes": 15}, {"id": 30654, "popularity": 1345932, "mean_score": 8.49, "num_episodes": 25}, {"id": 37521, "popularity": 1321376, "mean_score": 8.73, "num_episodes": 24}, {"id": 37430, "popularity": 1318999, "mean_score": 8.14, "num_episodes": 24}, {"id": 50265, "popularity": 1307345, "mean_score": 8.64, "num_episodes": 12}, {"id": 12189, "popularity": 1303603, "mean_score": 8.08, "num_episodes": 22}, {"id": 14741, "popularity": 1294958, "mean_score": 7.71, "num_episodes": 12}, {"id": 31478, "popularity": 1282276, "mean_score": 7.82, "num_episodes": 12}, {"id": 34599, "popularity": 1275691, "mean_score": 8.66, "num_episodes": 13}, {"id": 26243, "popularity": 1263500, "mean_score": 7.49, "num_episodes": 12}, {"id": 40591, "popularity": 1238510, "mean_score": 8.64, "num_episodes": 12}, {"id": 431, "popularity": 1236972, "mean_score": 8.66, "num_episodes": 1}, {"id": 38671, "popularity": 1234126, "mean_score": 7.71, "num_episodes": 24}, {"id": 9756, "popularity": 1223967, "mean_score": 8.36, "num_episodes": 12}, {"id": 44511, "popularity": 1217057, "mean_score": 8.61, "num_episodes": 12}, {"id": 42897, "popularity": 1215388, "mean_score": 8.2, "num_episodes": 13}]}
